…
ggdat <- cml_inc %>%
  ggcompetingrisks(conf.int = T) %>%
  getElement('data') %>%
  as_tibble() %>%
  select(
    time,
    group, # same group as in cuminc(),
    est, # est is cumulative incidence,
    std # std is the standard deviation of est
  )

print(ggdat)
#> # A tibble: 3,538 x 4
#>     time group      est      std
#>    <dbl> <chr>    <dbl>    <dbl>
#>  1     0 FALSE 0        0       
#>  2     1 FALSE 0        0       
#>  3     1 FALSE 0.000873 0.000504
#>  4     2 FALSE 0.000873 0.000504
#>  5     2 FALSE 0.00116  0.000582
#>  6     3 FALSE 0.00116  0.000582
#>  7     3 FALSE 0.00175  0.000713
#>  8     4 FALSE 0.00175  0.000713
#>  9     4 FALSE 0.00204  0.000770
#> 10     6 FALSE 0.00204  0.000770
#> # ... with 3,528 more rows
```
…
